<?xml version="1.0" encoding="UTF-8" standalone="no"?>
<!DOCTYPE svg PUBLIC "-//W3C//DTD SVG 1.1//EN" "http://www.w3.org/Graphics/SVG/1.1/DTD/svg11.dtd">
<svg width="100%" height="100%" viewBox="0 0 346 124" version="1.1" xmlns="http://www.w3.org/2000/svg" xmlns:xlink="http://www.w3.org/1999/xlink" xml:space="preserve" xmlns:serif="http://www.serif.com/" style="fill-rule:evenodd;clip-rule:evenodd;stroke-linejoin:round;stroke-miterlimit:2;">
    <g id="Artboard1" transform="matrix(0.947838,0,0,0.556314,70.2752,58.2605)">
        <rect x="-74.143" y="-104.726" width="364.823" height="221.262" style="fill:none;"/>
        <g transform="matrix(1.05503,0,0,1.79755,-55.4164,-471.18)">
            <path d="M28.87,242.43C19.5,242.43 12.72,249.43 12.72,257.72C12.72,266.01 19.45,272.9 28.76,272.9C38.07,272.9 44.91,265.9 44.91,257.61C44.91,249.32 38.18,242.43 28.87,242.43M28.87,264.23C25.26,264.23 22.68,261.16 22.68,257.61C22.68,254.06 25.05,251.1 28.76,251.1C32.47,251.1 34.95,254.17 34.95,257.72C34.95,261.27 32.58,264.23 28.87,264.23" style="fill:rgb(19,16,13);fill-rule:nonzero;"/>
            <path d="M158.66,242.43C149.29,242.43 142.51,249.43 142.51,257.72C142.51,266.01 149.24,272.9 158.55,272.9C167.86,272.9 174.7,265.9 174.7,257.61C174.7,249.32 167.97,242.43 158.66,242.43M158.66,264.23C155.05,264.23 152.47,261.16 152.47,257.61C152.47,254.06 154.84,251.1 158.55,251.1C162.26,251.1 164.74,254.17 164.74,257.72C164.74,261.27 162.37,264.23 158.66,264.23" style="fill:rgb(19,16,13);fill-rule:nonzero;"/>
            <path d="M47.07,243.08L57.3,243.08L57.3,247.17C59.18,244.75 61.88,242.43 66.02,242.43C72.21,242.43 75.93,246.52 75.93,253.14L75.93,272.2L65.7,272.2L65.7,256.43C65.7,253.25 64.03,251.53 61.61,251.53C59.19,251.53 57.3,253.25 57.3,256.43L57.3,272.2L47.07,272.2L47.07,243.08Z" style="fill:rgb(19,16,13);fill-rule:nonzero;"/>
            <path d="M107.25,258.37C107.25,249.81 102.62,242.44 92.56,242.44C83.95,242.44 77.86,249.22 77.86,257.73C77.86,266.77 84.32,272.91 93.47,272.91C99.28,272.91 103.32,270.54 106.12,266.99L100.47,262.3C98.37,264.35 96.43,265.26 94.01,265.26C90.83,265.26 88.52,263.65 87.71,260.47L107.2,260.47C107.25,259.77 107.25,259.02 107.25,258.37M87.55,255.25C88.09,252.07 89.92,249.98 92.61,249.98C95.3,249.98 97.29,252.02 97.67,255.25L87.55,255.25Z" style="fill:rgb(19,16,13);fill-rule:nonzero;"/>
            <path d="M128.51,242.43C124.15,242.43 121.67,244.53 119.68,246.95L119.68,243.07L109.45,243.07L109.45,280.81L119.68,280.81L119.68,268.64C121.56,270.85 124.15,272.84 128.56,272.84C135.45,272.84 141.42,267.03 141.42,257.55C141.42,248.07 135.44,242.42 128.5,242.42M125.38,264.28C122.1,264.28 119.46,261.48 119.46,257.6C119.46,253.72 122.1,250.98 125.38,250.98C128.66,250.98 131.36,253.78 131.36,257.6C131.36,261.42 128.72,264.28 125.38,264.28" style="fill:rgb(19,16,13);fill-rule:nonzero;"/>
            <rect x="177.07" y="243.08" width="10.23" height="29.12" style="fill:rgb(19,16,13);"/>
            <path d="M190.85,243.08L201.08,243.08L201.08,247.17C202.96,244.75 205.66,242.43 209.8,242.43C215.99,242.43 219.71,246.52 219.71,253.14L219.71,272.2L209.48,272.2L209.48,256.43C209.48,253.25 207.81,251.53 205.39,251.53C202.97,251.53 201.08,253.25 201.08,256.43L201.08,272.2L190.85,272.2L190.85,243.08Z" style="fill:rgb(19,16,13);fill-rule:nonzero;"/>
            <path d="M224.84,272.2L224.84,251.32L221.4,251.32L221.4,243.08L224.84,243.08L224.84,235.7L235.07,235.7L235.07,243.08L241.85,243.08L241.85,251.32L235.07,251.32L235.07,272.2L224.84,272.2Z" style="fill:rgb(19,16,13);fill-rule:nonzero;"/>
            <path d="M252.04,266.65C252.04,270.1 249.24,272.9 245.79,272.9C242.34,272.9 239.54,270.1 239.54,266.65C239.54,263.2 242.34,260.4 245.79,260.4C249.24,260.4 252.04,263.2 252.04,266.65" style="fill:rgb(0,162,223);fill-rule:nonzero;"/>
        </g>
        <g transform="matrix(1.05503,0,0,1.79755,-55.4164,-471.18)">
            <path d="M118.43,293.81C119.2,294.27 119.81,294.95 120.25,295.82C120.69,296.69 120.91,297.72 120.91,298.9C120.91,300.08 120.69,301.12 120.25,302C119.81,302.88 119.21,303.55 118.43,304.01C117.66,304.48 116.78,304.71 115.79,304.71C114.8,304.71 113.89,304.46 113.16,303.95C112.43,303.44 111.93,302.77 111.64,301.94L111.64,304.57L109.3,304.57L109.3,289.38L111.64,289.38L111.64,295.89C111.93,295.06 112.43,294.38 113.16,293.88C113.89,293.37 114.76,293.12 115.79,293.12C116.82,293.12 117.66,293.35 118.43,293.82L118.43,293.81ZM113.31,295.63C112.79,295.94 112.38,296.38 112.08,296.94C111.78,297.51 111.63,298.16 111.63,298.9C111.63,299.64 111.78,300.31 112.08,300.87C112.38,301.43 112.79,301.87 113.31,302.17C113.83,302.48 114.42,302.63 115.08,302.63C116.12,302.63 116.96,302.3 117.58,301.63C118.2,300.96 118.52,300.05 118.52,298.89C118.52,297.73 118.21,296.83 117.58,296.16C116.95,295.49 116.12,295.15 115.08,295.15C114.42,295.15 113.83,295.3 113.31,295.61L113.31,295.63Z" style="fill:rgb(19,16,13);fill-rule:nonzero;"/>
            <path d="M133.08,299.38L124.37,299.38C124.41,300.54 124.73,301.41 125.33,301.97C125.93,302.53 126.68,302.81 127.57,302.81C128.35,302.81 129.01,302.61 129.55,302.21C130.09,301.81 130.42,301.29 130.55,300.63L133.05,300.63C132.9,301.42 132.58,302.13 132.1,302.75C131.62,303.37 131,303.85 130.23,304.2C129.46,304.55 128.61,304.72 127.66,304.72C126.57,304.72 125.6,304.49 124.76,304.02C123.92,303.56 123.26,302.88 122.78,302.01C122.3,301.13 122.06,300.1 122.06,298.91C122.06,297.72 122.3,296.71 122.78,295.83C123.26,294.95 123.92,294.28 124.76,293.82C125.6,293.35 126.57,293.12 127.66,293.12C128.75,293.12 129.74,293.35 130.57,293.81C131.4,294.27 132.03,294.9 132.48,295.7C132.93,296.5 133.15,297.39 133.15,298.38C133.15,298.76 133.12,299.1 133.07,299.39L133.08,299.38ZM130.42,296.45C130.14,295.95 129.76,295.58 129.27,295.34C128.78,295.1 128.25,294.98 127.68,294.98C126.76,294.98 126,295.26 125.38,295.82C124.76,296.38 124.43,297.21 124.37,298.3L130.8,298.3C130.83,297.56 130.7,296.94 130.42,296.44L130.42,296.45Z" style="fill:rgb(19,16,13);fill-rule:nonzero;"/>
            <path d="M135.75,293.26L139.14,301.58L142.28,293.26L144.89,293.26L138.05,309.95L135.44,309.95L137.88,304.3L133.12,293.25L135.75,293.25L135.75,293.26Z" style="fill:rgb(19,16,13);fill-rule:nonzero;"/>
            <path d="M153.43,293.81C154.31,294.27 154.99,294.95 155.48,295.82C155.97,296.7 156.22,297.72 156.22,298.9C156.22,300.08 155.97,301.12 155.48,302C154.99,302.88 154.3,303.55 153.43,304.01C152.55,304.48 151.57,304.71 150.47,304.71C149.37,304.71 148.39,304.48 147.52,304.01C146.65,303.55 145.97,302.87 145.47,301.99C144.97,301.11 144.72,300.08 144.72,298.9C144.72,297.72 144.97,296.7 145.47,295.82C145.97,294.94 146.65,294.27 147.52,293.81C148.39,293.34 149.37,293.11 150.47,293.11C151.57,293.11 152.55,293.34 153.43,293.81ZM148.81,295.56C148.3,295.83 147.9,296.25 147.59,296.82C147.28,297.39 147.13,298.08 147.13,298.9C147.13,299.72 147.28,300.43 147.59,300.99C147.9,301.55 148.3,301.97 148.81,302.24C149.32,302.51 149.87,302.65 150.47,302.65C151.07,302.65 151.63,302.51 152.13,302.24C152.64,301.97 153.04,301.55 153.35,300.99C153.66,300.43 153.81,299.73 153.81,298.9C153.81,298.07 153.66,297.38 153.35,296.82C153.04,296.25 152.64,295.83 152.13,295.56C151.62,295.29 151.07,295.15 150.47,295.15C149.87,295.15 149.31,295.29 148.81,295.56Z" style="fill:rgb(19,16,13);fill-rule:nonzero;"/>
            <path d="M167.45,294.34C168.24,295.19 168.64,296.4 168.64,297.97L168.64,304.56L166.3,304.56L166.3,298.22C166.3,297.21 166.04,296.42 165.52,295.87C165,295.32 164.29,295.04 163.39,295.04C162.49,295.04 161.71,295.34 161.15,295.93C160.59,296.52 160.31,297.4 160.31,298.55L160.31,304.57L157.97,304.57L157.97,293.26L160.31,293.26L160.31,295.74C160.61,294.89 161.12,294.23 161.83,293.77C162.54,293.3 163.36,293.07 164.29,293.07C165.6,293.07 166.66,293.49 167.45,294.34Z" style="fill:rgb(19,16,13);fill-rule:nonzero;"/>
            <path d="M178.02,293.87C178.75,294.38 179.25,295.05 179.54,295.88L179.54,289.37L181.9,289.37L181.9,304.56L179.54,304.56L179.54,301.93C179.25,302.76 178.75,303.44 178.02,303.94C177.29,304.45 176.42,304.7 175.39,304.7C174.36,304.7 173.52,304.47 172.75,304C171.98,303.54 171.37,302.86 170.93,301.99C170.49,301.11 170.27,300.08 170.27,298.89C170.27,297.7 170.49,296.69 170.93,295.81C171.37,294.93 171.97,294.26 172.75,293.8C173.52,293.33 174.4,293.1 175.39,293.1C176.38,293.1 177.29,293.35 178.02,293.86L178.02,293.87ZM173.62,296.16C173,296.82 172.69,297.74 172.69,298.9C172.69,300.06 173,300.98 173.62,301.64C174.24,302.3 175.07,302.64 176.12,302.64C176.78,302.64 177.37,302.49 177.89,302.18C178.41,301.87 178.82,301.44 179.12,300.88C179.42,300.32 179.57,299.66 179.57,298.91C179.57,298.16 179.42,297.52 179.12,296.95C178.82,296.38 178.41,295.94 177.89,295.64C177.37,295.33 176.78,295.18 176.12,295.18C175.08,295.18 174.25,295.51 173.62,296.18L173.62,296.16Z" style="fill:rgb(19,16,13);fill-rule:nonzero;"/>
            <path d="M194.2,302.54L194.2,304.57L192.76,304.57C191.56,304.57 190.64,304.28 190.02,303.7C189.4,303.12 189.09,302.15 189.09,300.8L189.09,295.26L187.47,295.26L187.47,293.27L189.09,293.27L189.09,290.46L191.45,290.46L191.45,293.27L194.18,293.27L194.18,295.26L191.45,295.26L191.45,300.84C191.45,301.48 191.57,301.93 191.81,302.17C192.05,302.42 192.47,302.54 193.07,302.54L194.2,302.54Z" style="fill:rgb(19,16,13);fill-rule:nonzero;"/>
            <path d="M205.39,294.34C206.18,295.19 206.58,296.4 206.58,297.97L206.58,304.56L204.24,304.56L204.24,298.22C204.24,297.21 203.98,296.42 203.46,295.87C202.94,295.32 202.23,295.04 201.33,295.04C200.43,295.04 199.65,295.34 199.09,295.93C198.53,296.52 198.25,297.4 198.25,298.55L198.25,304.57L195.91,304.57L195.91,289.38L198.25,289.38L198.25,295.74C198.55,294.89 199.06,294.23 199.77,293.77C200.48,293.3 201.3,293.07 202.23,293.07C203.54,293.07 204.6,293.49 205.39,294.34Z" style="fill:rgb(19,16,13);fill-rule:nonzero;"/>
            <path d="M219.23,299.38L210.52,299.38C210.56,300.54 210.88,301.41 211.48,301.97C212.08,302.53 212.83,302.81 213.72,302.81C214.5,302.81 215.16,302.61 215.7,302.21C216.24,301.81 216.57,301.29 216.7,300.63L219.2,300.63C219.05,301.42 218.73,302.13 218.25,302.75C217.77,303.37 217.15,303.85 216.38,304.2C215.61,304.55 214.76,304.72 213.81,304.72C212.72,304.72 211.75,304.49 210.91,304.02C210.07,303.56 209.41,302.88 208.93,302.01C208.45,301.13 208.21,300.1 208.21,298.91C208.21,297.72 208.45,296.71 208.93,295.83C209.41,294.95 210.07,294.28 210.91,293.82C211.75,293.35 212.72,293.12 213.81,293.12C214.9,293.12 215.89,293.35 216.72,293.81C217.55,294.27 218.18,294.9 218.63,295.7C219.08,296.5 219.3,297.39 219.3,298.38C219.3,298.76 219.27,299.1 219.22,299.39L219.23,299.38ZM216.57,296.45C216.29,295.95 215.91,295.58 215.42,295.34C214.93,295.1 214.4,294.98 213.83,294.98C212.91,294.98 212.15,295.26 211.53,295.82C210.91,296.38 210.58,297.21 210.52,298.3L216.95,298.3C216.98,297.56 216.85,296.94 216.57,296.44L216.57,296.45Z" style="fill:rgb(19,16,13);fill-rule:nonzero;"/>
            <path d="M233.52,293.81C234.4,294.27 235.08,294.95 235.57,295.82C236.06,296.7 236.31,297.72 236.31,298.9C236.31,300.08 236.06,301.12 235.57,302C235.08,302.88 234.39,303.55 233.52,304.01C232.64,304.48 231.66,304.71 230.56,304.71C229.46,304.71 228.48,304.48 227.61,304.01C226.74,303.55 226.06,302.87 225.56,301.99C225.06,301.11 224.81,300.08 224.81,298.9C224.81,297.72 225.06,296.7 225.56,295.82C226.06,294.94 226.74,294.27 227.61,293.81C228.48,293.34 229.46,293.11 230.56,293.11C231.66,293.11 232.64,293.34 233.52,293.81ZM228.9,295.56C228.39,295.83 227.99,296.25 227.68,296.82C227.37,297.39 227.22,298.08 227.22,298.9C227.22,299.72 227.37,300.43 227.68,300.99C227.99,301.55 228.39,301.97 228.9,302.24C229.41,302.51 229.96,302.65 230.56,302.65C231.16,302.65 231.72,302.51 232.22,302.24C232.73,301.97 233.13,301.55 233.44,300.99C233.75,300.43 233.9,299.73 233.9,298.9C233.9,298.07 233.75,297.38 233.44,296.82C233.13,296.25 232.73,295.83 232.22,295.56C231.71,295.29 231.16,295.15 230.56,295.15C229.96,295.15 229.4,295.29 228.9,295.56Z" style="fill:rgb(19,16,13);fill-rule:nonzero;"/>
            <path d="M247.2,293.81C247.97,294.27 248.58,294.95 249.02,295.82C249.46,296.69 249.68,297.72 249.68,298.9C249.68,300.08 249.46,301.12 249.02,302C248.58,302.88 247.98,303.55 247.2,304.01C246.43,304.48 245.55,304.71 244.56,304.71C243.57,304.71 242.66,304.46 241.93,303.95C241.2,303.44 240.7,302.77 240.41,301.94L240.41,304.57L238.07,304.57L238.07,289.38L240.41,289.38L240.41,295.89C240.7,295.06 241.2,294.38 241.93,293.88C242.66,293.37 243.53,293.12 244.56,293.12C245.59,293.12 246.43,293.35 247.2,293.82L247.2,293.81ZM242.08,295.63C241.56,295.94 241.15,296.38 240.85,296.94C240.55,297.51 240.4,298.16 240.4,298.9C240.4,299.64 240.55,300.31 240.85,300.87C241.15,301.43 241.56,301.87 242.08,302.17C242.6,302.48 243.19,302.63 243.85,302.63C244.89,302.63 245.73,302.3 246.35,301.63C246.97,300.96 247.29,300.05 247.29,298.89C247.29,297.73 246.98,296.83 246.35,296.16C245.72,295.49 244.89,295.15 243.85,295.15C243.19,295.15 242.6,295.3 242.08,295.61L242.08,295.63Z" style="fill:rgb(19,16,13);fill-rule:nonzero;"/>
            <path d="M255.57,302.15L258.77,293.26L261.27,293.26L256.96,304.57L254.13,304.57L249.82,293.26L252.32,293.26L255.56,302.15L255.57,302.15Z" style="fill:rgb(19,16,13);fill-rule:nonzero;"/>
            <path d="M262.59,288.99C262.86,288.73 263.23,288.6 263.68,288.6C264.13,288.6 264.5,288.73 264.78,288.99C265.06,289.25 265.2,289.58 265.2,289.98C265.2,290.38 265.06,290.7 264.78,290.94C264.5,291.19 264.13,291.31 263.68,291.31C263.23,291.31 262.87,291.19 262.59,290.94C262.32,290.69 262.18,290.37 262.18,289.98C262.18,289.59 262.32,289.26 262.59,288.99ZM264.85,293.26L264.85,304.57L262.51,304.57L262.51,293.26L264.85,293.26Z" style="fill:rgb(19,16,13);fill-rule:nonzero;"/>
            <path d="M275.3,293.81C276.18,294.27 276.86,294.95 277.35,295.82C277.84,296.7 278.09,297.72 278.09,298.9C278.09,300.08 277.84,301.12 277.35,302C276.86,302.88 276.17,303.55 275.3,304.01C274.42,304.48 273.44,304.71 272.34,304.71C271.24,304.71 270.26,304.48 269.39,304.01C268.52,303.55 267.84,302.87 267.34,301.99C266.84,301.11 266.59,300.08 266.59,298.9C266.59,297.72 266.84,296.7 267.34,295.82C267.84,294.94 268.52,294.27 269.39,293.81C270.26,293.34 271.24,293.11 272.34,293.11C273.44,293.11 274.42,293.34 275.3,293.81ZM270.68,295.56C270.17,295.83 269.77,296.25 269.46,296.82C269.15,297.39 269,298.08 269,298.9C269,299.72 269.15,300.43 269.46,300.99C269.77,301.55 270.17,301.97 270.68,302.24C271.19,302.51 271.74,302.65 272.34,302.65C272.94,302.65 273.5,302.51 274,302.24C274.51,301.97 274.91,301.55 275.22,300.99C275.53,300.43 275.68,299.73 275.68,298.9C275.68,298.07 275.53,297.38 275.22,296.82C274.91,296.25 274.51,295.83 274,295.56C273.49,295.29 272.94,295.15 272.34,295.15C271.74,295.15 271.18,295.29 270.68,295.56Z" style="fill:rgb(19,16,13);fill-rule:nonzero;"/>
            <path d="M290.26,293.26L290.26,304.57L287.9,304.57L287.9,302.11C287.61,302.94 287.11,303.59 286.4,304.05C285.69,304.51 284.86,304.74 283.92,304.74C282.61,304.74 281.55,304.32 280.76,303.47C279.97,302.62 279.57,301.41 279.57,299.84L279.57,293.27L281.91,293.27L281.91,299.59C281.91,300.62 282.17,301.41 282.69,301.96C283.21,302.51 283.92,302.79 284.82,302.79C285.72,302.79 286.5,302.49 287.06,301.89C287.62,301.29 287.9,300.41 287.9,299.26L287.9,293.26L290.26,293.26Z" style="fill:rgb(19,16,13);fill-rule:nonzero;"/>
            <path d="M299.49,294.13C300.29,294.81 300.78,295.71 300.96,296.85L298.74,296.85C298.64,296.23 298.38,295.74 297.95,295.36C297.52,294.98 296.95,294.8 296.24,294.8C295.65,294.8 295.2,294.94 294.87,295.22C294.55,295.5 294.39,295.88 294.39,296.36C294.39,296.72 294.51,297 294.74,297.22C294.97,297.44 295.26,297.61 295.61,297.73C295.96,297.85 296.45,297.99 297.1,298.14C297.95,298.33 298.64,298.53 299.16,298.73C299.69,298.94 300.14,299.26 300.51,299.71C300.89,300.16 301.07,300.76 301.07,301.53C301.07,302.47 300.71,303.24 299.99,303.83C299.27,304.42 298.3,304.71 297.08,304.71C295.67,304.71 294.53,304.38 293.66,303.72C292.79,303.06 292.27,302.15 292.09,300.97L294.37,300.97C294.44,301.59 294.71,302.09 295.19,302.47C295.67,302.85 296.3,303.04 297.08,303.04C297.64,303.04 298.08,302.89 298.4,302.6C298.72,302.31 298.88,301.93 298.88,301.48C298.88,301.08 298.76,300.77 298.51,300.54C298.26,300.31 297.96,300.13 297.59,300C297.22,299.87 296.71,299.74 296.07,299.6C295.25,299.41 294.58,299.22 294.07,299.03C293.56,298.84 293.12,298.53 292.76,298.1C292.4,297.67 292.22,297.08 292.22,296.35C292.22,295.39 292.58,294.61 293.3,294.02C294.02,293.43 295.01,293.13 296.29,293.13C297.57,293.13 298.68,293.47 299.48,294.15L299.49,294.13Z" style="fill:rgb(19,16,13);fill-rule:nonzero;"/>
        </g>
    </g>
</svg>
