<?xml version="1.0" encoding="UTF-8" standalone="no"?>
<!DOCTYPE svg PUBLIC "-//W3C//DTD SVG 1.1//EN" "http://www.w3.org/Graphics/SVG/1.1/DTD/svg11.dtd">
<svg width="100%" height="100%" viewBox="0 0 600 480" version="1.1" xmlns="http://www.w3.org/2000/svg" xmlns:xlink="http://www.w3.org/1999/xlink" xml:space="preserve" xmlns:serif="http://www.serif.com/" style="fill-rule:evenodd;clip-rule:evenodd;">
    <g id="Spectra">
        <g id="Classical--5000K-" serif:id="Classical (5000K)">
            <g id="legend" transform="matrix(1,0,0,1,338.3,127)">
                <text x="0px" y="0px" style="font-family:'ArialMT', 'Arial', sans-serif;font-size:12px;">Classical theory (5000 K)</text>
            </g>
            <path id="spectrum" d="M295,16.7L297.3,33.6L302.3,67L307.4,96.8L312.4,123.4L317.4,147.3L322.5,168.8L327.5,188.2L332.5,205.6L337.5,221.5L342.6,235.8L347.6,248.8L352.6,260.7L357.7,271.5L362.7,281.4L367.7,290.4L372.8,298.7L377.8,306.2L382.8,313.2L387.9,319.6L392.9,325.5L397.9,331L403,336L408,340.7L413,345L418.1,349L423.1,352.7L428.1,356.1L433.2,359.3L438.2,362.3L443.2,365.1L448.3,367.7L453.3,370.1L458.3,372.4L463.4,374.5L468.4,376.5L473.4,378.3L478.5,380.1L483.5,381.7L488.5,383.2L493.6,384.7L503.6,387.3L508.6,388.5L513.7,389.7L523.7,391.7L528.8,392.7L538.8,394.5L543.9,395.3L548.9,396L553.9,396.8L559,397.5L569,398.7L574.1,399.3L579.1,399.9" style="fill:none;fill-rule:nonzero;stroke:black;stroke-width:2px;"/>
        </g>
    </g>
</svg>
